<?xml version="1.0" encoding="utf-8"?>
<svg viewBox="246.333 247.667 7.334 4.667" xmlns="http://www.w3.org/2000/svg">
  <path d="M 246.626 247.96 C 246.986 247.599 247.554 247.572 247.946 247.877 L 248.04 247.96 L 250 249.919 L 251.959 247.96 C 252.32 247.599 252.887 247.572 253.279 247.877 L 253.373 247.96 C 253.734 248.32 253.762 248.888 253.457 249.28 L 253.373 249.374 L 250.707 252.041 C 250.346 252.401 249.779 252.429 249.387 252.124 L 249.293 252.041 L 246.626 249.374 C 246.235 248.984 246.235 248.35 246.626 247.96 Z" style="fill: rgb(108, 93, 211);" transform="matrix(-1, 0, 0, -1, 499.999237, 500.000671)"/>
</svg>