{
    "createDate": "Wed Feb 16 14:01:19 2022",
    "dataBasePath": "Database path go here",
    "entryNumbers": [
        4134,
        123,
        1
    ],
    "greenDurations": [
        4124,
        412
    ],
    "horizontalIntersectionNumber": 3,
    "intersectionNumbers": [
        124,
        134
    ],
    "lastModifiedDate": "Wed Feb 16 14:01:19 2022",
    "projectName": "wadsf",
    "redDurations": [
        124,
        412
    ],
    "sequenceNumbers": [
        412,
        21
    ],
    "userName": "casdvasv",
    "vehicleInitialSpeeds": [
        4123421,
        142,
        12414
    ],
    "verticalIntersectionNumber": 5,
    "yellowDurations": [
        4124,
        412
    ]
}
